{
  "title": "Departments",
  "model": "Departments",
  "searchExpression": "indexof(name, '${text}') ge 0",
  "selectable": true,
  "multipleSelect": true,
  "columns": [
    {
      "name":"id",
      "property": "id",
      "hidden": true
    },
    {
      "name":"name",
      "property": "name",
      "title": "Admin.Departments.Name"
    },
    {
      "name": "city",
      "property": "city",
      "title": "Admin.Departments.City"
    }
  ],
  "criteria": [

  ],
  "searches": [

  ],
  "defaults":{
    "filter": "localDepartment eq true and ${queryFilter}"
  },
  "paths" : [

  ]
}
