{
  "model": "Groups",
  "settings": {
    "i18n": {
      "el": {
        "Create group": "Δημιουργία Ομάδας",
        "Set the name of this group": "Ορίστε την ονομασία της ομάδας",
        "Add an alternative name of this group. This field must contain only latin characters or numbers": "Ορίστε την εναλλακτική ονομασία για την ομάδα. Εισάγετε μόνο λατινικούς χαρακτήρες ή αριθμούς",
        "This field must contain only latin characters or numbers. A value is required.": "Αυτό το πεδίο πρέπει να περιέχει μόνον λατινικούς χαρακτήρες ή αριθμούς πχ. Administrators, Guests κτλ. Το πεδίο είναι υποχρεωτικό.",
        "Name": "Ονομασία ομάδας",
        "Group alternate name": "Εναλλακτική ονομασία ομάδας",
        "Add short description": "Εισάγετε μια σύντομη περιγραφή"
      }
    }
  },
  "components": [
    {
      "legend": "Create group",
      "key": "fieldSet",
      "type": "fieldset",
      "input": false,
      "label": "Create group",
      "components": [
        {
          "columns": [
            {
              "components": [
                {
                  "label": "Name",
                  "labelPosition": "top",
                  "widget": {
                    "type": "input"
                  },
                  "validate": {
                    "required": true
                  },
                  "key": "name",
                  "type": "textfield",
                  "description": "Set the name of this group",
                  "input": true
                }
              ],
              "width": 6
            },
            {
              "components": [
                {
                  "label": "Group alternate name",
                  "labelPosition": "top",
                  "widget": {
                    "type": "input"
                  },
                  "validate": {
                    "required": true,
                    "pattern": "^[a-zA-Z0-9_+-]+$",
                    "customMessage": "This field must contain only latin characters or numbers. A value is required."
                  },
                  "key": "alternateName",
                  "type": "textfield",
                  "description": "Add an alternative name of this group. This field must contain only latin characters or numbers",
                  "input": true
                }
              ],
              "width": 6
            },
            {
              "components": [
                {
                  "label": "Description",
                  "labelPosition": "top",
                  "widget": {
                    "type": "input"
                  },
                  "validate": {
                    "required": false
                  },
                  "key": "description",
                  "type": "textfield",
                  "description": "Add short description",
                  "input": true
                }
              ],
              "width": 12
            }
          ],
          "customClass": "text-dark",
          "hideLabel": true,
          "type": "columns",
          "input": false
        }
      ]
    },
    {
      "type": "button",
      "theme": "btn btn-indigo",
      "label": "Submit",
      "key": "submit",
      "disableOnInvalid": true,
      "input": true
    }
  ]
}

