{
  "settings": {
    "i18n": {
      "el": {
        "Copy self privileges from": "Εισαγωγή ειδικών δικαιωμάτων από την ομάδα",
        "Select the group of which the self privileges will be copied": "Επιλέξτε την ομάδα της οποίας τα ειδικά δικαιώματα θα εισαχθούν στην τρέχουσα."
      }
    }
  },
  "components": [
    {
      "type": "fieldset",
      "components": [
        {
          "columns": [
            {
              "components": [
                {
                  "label": "Copy self privileges from",
                  "labelPosition": "top",
                  "widget": "choicesjs",
                  "dataSrc": "url",
                  "customConditional": "show = !!data.group;",
                  "data": {
                    "url": "/Groups?$select=id,name&$filter=id ne {{data.group}}&$top=-1",
                    "headers": []
                  },
                  "validate": {
                    "required": true
                  },
                  "valueProperty": "id",
                  "lazyLoad": false,
                  "template": "{{ item.name }}",
                  "selectThreshold": 0.3,
                  "key": "sourceAccount",
                  "type": "select",
                  "selectValues": "value",
                  "input": true,
                  "description": "Select the group of which the self privileges will be copied"
                }
              ],
              "width": 8
            }
          ],
          "customClass": "text-dark",
          "hideLabel": true,
          "type": "columns",
          "input": false
        }
      ]
    }
  ],
  "width": 3
}
